{
    "title": "About Us",
    "description": "Technocom Networking Communications is an ISO-9001 certified company that boasts an expertise in all IT and networking solutions.",
    "keywords": "Networking, Telecommunication, Data Centre Infrastructure, Planning, Customer Care, ELV Systems"
}